week4_lab
…
Correlation Plot

Compare how a number of variables correlate with one another.

Here well see how the number of men, number of women, and number of passed tests are correlated.

counts<- cast %>%
  group_by(MOVIE) %>%
  spread(gender, gender_count)%>% # spread is extremely handy! It takes what's in rows and makes them into columns
  rename(movie="MOVIE") 

# to see what spread does compare counts and cast 
counts

## # A tibble: 50 x 5
## # Groups:   movie [50]
##    movie                              roles   Men Other Women
##    <fct>                              <int> <int> <int> <int>
##  1 10 Cloverfield Lane                   10     5     2     3
##  2 Alice Through the Looking Glass       23    11     3     9
##  3 Arrival                               60    30     9    21
##  4 Bad Moms                              16     4     2    10
##  5 Batman v Superman: Dawn of Justice   122    78     8    36
##  6 Captain America: Civil War            26    15     5     6
##  7 Central Intelligence                  25    17     4     4
##  8 Deadpool                              34    18     5    11
##  9 Doctor Strange                        29    16     5     8
## 10 Dont Breathe                         10     5    NA     5
## #  with 40 more rows
…
