…
### Filtering Data 

Often, you might be concerned only with a specific set of cases from your data set. For example, maybe we just want to look at US cities. We'll need to filter and select the data we want. Let's save it as a new data frame, us_mobility. 


```r
# first we need to identify the country region code for the US. I'm pretty sure that States will be included in the country region so let's try that first. We'll use the str_detect funtion to identify  the word in the country_region column. 

google_mobility %>%
  filter(str_detect(country_region, "States"))
```

```
## # A tibble: 3,144,660 x 10
##    country_region_… country_region sub_region_1 sub_region_2 metro_area
##    <chr>            <chr>          <chr>        <chr>        <chr>     
##  1 US               United States  <NA>         <NA>         <NA>      
##  2 US               United States  <NA>         <NA>         <NA>      
##  3 US               United States  <NA>         <NA>         <NA>      
##  4 US               United States  <NA>         <NA>         <NA>      
##  5 US               United States  <NA>         <NA>         <NA>      
##  6 US               United States  <NA>         <NA>         <NA>      
##  7 US               United States  <NA>         <NA>         <NA>      
##  8 US               United States  <NA>         <NA>         <NA>      
##  9 US               United States  <NA>         <NA>         <NA>      
## 10 US               United States  <NA>         <NA>         <NA>      
## # … with 3,144,650 more rows, and 5 more variables: iso3166_2 <chr>,
## #   census_fips_code <chr>, date <date>, type <chr>, pct_diff <int>
```
…
# Filter the data so the only country included is Thailand. 

# How would you filter the data to only get observations for Brazil and Grocery Store? 

# We can also use filter on continuous variables, subsetting the data by a value. Here we filter the data to see only those pct_diff fewer than -100. 

google_mobility %>%
  filter(pct_diff< (-99))
```

```
## # A tibble: 5,040 x 10
##    country_region_… country_region sub_region_1 sub_region_2 metro_area
##    <chr>            <chr>          <chr>        <chr>        <chr>     
##  1 AG               Antigua and B… Saint John   <NA>         <NA>      
##  2 AR               Argentina      Buenos Aires Comuna 10    <NA>      
##  3 AR               Argentina      Buenos Aires Comuna 10    <NA>      
##  4 AR               Argentina      Buenos Aires Comuna 10    <NA>      
##  5 AR               Argentina      Buenos Aires Comuna 10    <NA>      
##  6 AR               Argentina      Buenos Aires Comuna 10    <NA>      
##  7 AR               Argentina      Buenos Aires Comuna 10    <NA>      
##  8 AR               Argentina      Buenos Aires Comuna 10    <NA>      
##  9 AR               Argentina      Buenos Aires Comuna 10    <NA>      
## 10 AR               Argentina      Buenos Aires Comuna 10    <NA>      
## # … with 5,030 more rows, and 5 more variables: iso3166_2 <chr>,
## #   census_fips_code <chr>, date <date>, type <chr>, pct_diff <int>
```

```r
# Filter the us data to find anything that had more than a 80 pct_diff increase
us_mobility %>%
  filter(pct_diff > 80)
```

```
## # A tibble: 27,788 x 10
##    country_region_… country_region sub_region_1 sub_region_2 metro_area
##    <chr>            <chr>          <chr>        <chr>        <chr>     
##  1 US               United States  <NA>         <NA>         <NA>      
##  2 US               United States  <NA>         <NA>         <NA>      
##  3 US               United States  Alabama      <NA>         <NA>      
##  4 US               United States  Alabama      <NA>         <NA>      
##  5 US               United States  Alabama      <NA>         <NA>      
##  6 US               United States  Alabama      <NA>         <NA>      
##  7 US               United States  Alabama      Baldwin Cou… <NA>      
##  8 US               United States  Alabama      Baldwin Cou… <NA>      
##  9 US               United States  Alabama      Baldwin Cou… <NA>      
## 10 US               United States  Alabama      Baldwin Cou… <NA>      
## # … with 27,778 more rows, and 5 more variables: iso3166_2 <chr>,
## #   census_fips_code <chr>, date <date>, type <chr>, pct_diff <int>
```
…
### Grouping and summarizing data 

Another important skill in data science is the ability to summarize across different groups or subsets of data. We can make subsets using filter, as we did above, and then running analysis on the new dataframe, but if we want to aggregate across different categories, it's best to use the group_by function. 


```r
# Lets find a list of all the metropolitian areas included in our data set and count the number of times each type occurs 

google_mobility %>% 
  group_by(metro_area)%>%
  count(type)
```

```
## # A tibble: 396 x 3
## # Groups:   metro_area [66]
##    metro_area                   type            n
##    <chr>                        <chr>       <int>
##  1 Abbottabad Metropolitan Area grocery       198
##  2 Abbottabad Metropolitan Area parks         198
##  3 Abbottabad Metropolitan Area residential   198
##  4 Abbottabad Metropolitan Area retail        198
##  5 Abbottabad Metropolitan Area transit       198
##  6 Abbottabad Metropolitan Area workplaces    198
##  7 Accra Metropolitan Area      grocery       198
##  8 Accra Metropolitan Area      parks         198
##  9 Accra Metropolitan Area      residential   198
## 10 Accra Metropolitan Area      retail        198
## # … with 386 more rows
```

```r
# Are all 50 states included in our us_mobility data fame ?

# Sub_region_1 is equivalent to state for the US region so first lets rename the variable for clarity.
# then we'll count each state
us_mobility <- us_mobility %>%
  rename(state="sub_region_1")

us_mobility %>%
  count(state)
```

```
## # A tibble: 52 x 2
##    state                    n
##    <chr>                <int>
##  1 Alabama              77352
##  2 Alaska               12312
##  3 Arizona              18756
##  4 Arkansas             77154
##  5 California           66960
##  6 Colorado             54834
##  7 Connecticut          10692
##  8 Delaware              4752
##  9 District of Columbia  1188
## 10 Florida              79416
## # … with 42 more rows
```
…
